id,name,model_id:id,group_id:id,perm_read,perm_write,perm_create,perm_unlink
access_history_detail_user,history.detail.user,model_history_detail,group_geolocation,1,1,1,1
access_geo_cache_user,geo.cache.user,model_geo_cache,group_geolocation,1,1,1,1
